[
  {
    "id": "405264",
    "title": "Кольцо из красного и белого золота с бриллиантами",
    "text": "Вес 3,34 гр, золото 585, 53 бр кр 57 0,187 3\/5а, Белый, размер 18",
    "priceNew": "34 860",
    "priceOld": "43 575",
    "image": "/img/temp/1-107-350.png"
  },
  {
    "id": "405103",
    "title": "Серьги из красного и белого золота с бриллиантами",
    "text": "Вес 3,81 гр., золото 585, подвесной элемент, бриллиант, 54 бр кр 57 0,191 3\/5а,, Английский замок",
    "priceNew": "37 900",
    "priceOld": "47 375",
    "image": "/img/temp/2-107-707.png"
  },
  {
    "id": "409571",
    "title": "Колье из белого золота с бриллиантом",
    "text": "Белое золото 585, размер 45,0, вес 4,64, 1 Бр Кр 57 0,54 3\/5А, автоматное (полновесная)плетение, тондо",
    "priceNew": "277 200",
    "priceOld": "346 500",
    "image": "/img/temp/14-0008.png"
  },
  {
    "id": "406052",
    "title": "Серьги из белого золота с бриллиантами",
    "text": "Белое золото 585, вес 2,58,2 Бр Кр 57 0,165 3\/5А, английский замок",
    "priceNew": "43 510",
    "priceOld": "54 390",
    "image": "/img/temp/02-1201.png"
  },
  {
    "id": "406001",
    "title": "Серьги из белого золота с бриллиантами",
    "text": "Белое золото 585, вес  2,84, 2 Бр Кр 57 0,062 3\/5А, английский замок",
    "priceNew": "24 060",
    "priceOld": "30 070",
    "image": "/img/temp/02-1262.png"
  },
  {
    "id": "405861",
    "title": "Серьги из жёлтого золота с морским жемчугом и бриллиантами",
    "text": "Жёлтое золото 585, вес 10,78, 4 Бр Кр-57 0,028 3\/5А 18 Бр Кр-57 0,56 3\/5А 4 Бр Кр-57 0,018 3\/5А 8 Бр Кр-57 0,128 3\/5А 2 жем.мор.зол. Сингапур  18,77, бри",
    "priceNew": "162 740",
    "priceOld": "203 425",
    "image": "/img/temp/02-3450.png"
  },
  {
    "id": "406438",
    "title": "Серьги из белого золота с бриллиантами",
    "text": "Белое золото 585,вес 6,31, 90 Бр Кр-57 0,572 3\/6А, английский замок,",
    "priceNew": "96 110",
    "priceOld": "120 140",
    "image": "/img/temp/02-1191.png"
  }
]